	google				sdl


	-4.3502	pos nnp        		1.7800	rp             
	-3.0471	pos nnp nn     		1.6054	pos nn nn      
	-2.6594	nn pos nnp     		1.5534	jj uh nnp      
	-2.3386	vbd jjs        		1.4453	pos nn         
	-2.0887	pos nnp nn nn  		1.4449	to             
	-2.0715	uh nn          		1.3576	nnp nnp pos nn nn
	-1.8761	cd nnp         		1.2588	prp vbp nn vbp 
	-1.6535	jjs            		1.2359	jj uh          
	-1.5747	nn nn nn nn vbd		1.2352	jj jj jj nn jj 
	-1.5190	cd nnp nn      		1.2187	nn pos nn      


             precision    recall  f1-score   support

     google       0.78      0.78      0.78      4558
        sdl       0.78      0.79      0.79      4680

avg / total       0.78      0.78      0.78      9238

