	google				sdl


	-4.4866	pos nnp        		3.3320	jj uh          
	-4.0274	uh nn          		2.8309	rp             
	-3.9207	vbp jj         		2.8274	pos nn         
	-3.7787	prp jj         		2.7919	uh prp         
	-3.6650	jjs            		2.7339	jj dt          
	-3.6497	vbd jjs        		2.5660	prp vbg        
	-3.3256	fw dt          		2.4128	to nn          
	-2.9657	cd nnp         		2.1753	prp            
	-2.6303	vbd vbd        		2.1333	vbg prp        
	-2.5512	vbg jjs        		2.0970	vbp rp         


             precision    recall  f1-score   support

     google       0.65      0.65      0.65     18231
        sdl       0.66      0.66      0.66     18717

avg / total       0.65      0.65      0.65     36948

