	google				sdl


	-2.3461	pos nnp        		1.6609	jj dt          
	-1.9209	vbd jjs        		1.6269	uh prp         
	-1.8680	uh nn          		1.5016	prp dt         
	-1.7619	wp sym         		1.4898	jj wrb         
	-1.7228	vbg jjs        		1.4537	vbp rp         
	-1.5897	nnps vb        		1.4381	dt vbp         
	-1.5498	uh sym         		1.4035	dt vbn         
	-1.5289	sym uh         		1.3502	dt prp         
	-1.4780	dt to          		1.2735	jj uh          
	-1.4560	dt vbd         		1.2434	prp rp         


             precision    recall  f1-score   support

     google       0.64      0.59      0.61     18231
        sdl       0.63      0.68      0.65     18717

avg / total       0.63      0.63      0.63     36948

