	google				sdl


	-3.3503	pos nnp        		2.8959	cd nnp pos     
	-2.6939	vbd prp md     		2.2106	vbp prp vb     
	-2.6591	nnp nn nn      		2.1187	jj uh nnp      
	-2.3171	vbd jjs        		2.0438	jj uh          
	-2.1381	cd cd nnp      		1.9377	vbd cd cd      
	-2.0741	nnp vbd cd     		1.7985	vbd prp rb     
	-2.0096	uh nn          		1.7907	rb vb prp      
	-1.9454	prp vbd vbn    		1.7767	prp vbg nn     
	-1.9404	uh nn jj       		1.7415	fw fw          
	-1.9276	jj in dt       		1.7197	fw fw ex       


             precision    recall  f1-score   support

     google       0.65      0.63      0.64     18231
        sdl       0.65      0.67      0.66     18717

avg / total       0.65      0.65      0.65     36948

