Group,F_score
LinearSVC,0.56
LinearSVC,0.58
LinearSVC,0.59
LinearSVC,0.57
LinearSVC,0.62
LinearSVC,0.63
LinearSVC,0.63
LinearSVC,0.6
LinearSVC,0.64
LinearSVC,0.6
LinearSVC,0.66
LinearSVC,0.64
LinearSVC,0.65
LinearSVC,0.68
LinearSVC,0.76
LinearSVC,0.71
LinearSVC,0.7
LinearSVC,0.72
LinearSVC,0.69
LinearSVC,0.73
LinearSVC,0.7
LinearSVC,0.77
LinearSVC,0.68
LinearSVC,0.69
LinearSVC,0.75
LinearSVC,0.68
LinearSVC,0.71
LinearSVC,0.7
LinearSVC,0.69
LinearSVC,0.78
LinearSVC,0.71
LinearSVC,0.69
LinearSVC,0.69
LinearSVC,0.69
LinearSVC,0.7
LinearSVC,0.7
LinearSVC,0.75
LinearSVC,0.81
LinearSVC,0.8
LinearSVC,0.85
LinearSVC,0.76
LinearSVC,0.74
LinearSVC,0.74
LinearSVC,0.74
LinearSVC,0.71
LinearSVC,0.74
LinearSVC,0.7
LinearSVC,0.72
LinearSVC,0.75
LinearSVC,0.76
LinearSVC,0.84
LinearSVC,0.86
LinearSVC,0.75
LinearSVC,0.73
LinearSVC,0.73
LinearSVC,0.73
LinearSVC,0.72
LinearSVC,0.73
LinearSVC,0.73
LinearSVC,0.75
LinearSVC,0.87
LinearSVC,0.77
LinearSVC,0.75
LinearSVC,0.73
LinearSVC,0.7
LinearSVC,0.71
LinearSVC,0.71
LinearSVC,0.68
LinearSVC,0.68
LinearSVC,0.76
LinearSVC,0.78
LinearSVC,0.76
LinearSVC,0.79
LinearSVC,0.85
LinearSVC,0.82
LinearSVC,0.71
LinearSVC,0.82
LinearSVC,0.87
LinearSVC,0.8
LinearSVC,0.75
LinearSVC,0.87
LinearSVC,0.85
LinearSVC,0.8
LinearSVC,0.71
LinearSVC,0.73
LinearSVC,0.75
LinearSVC,0.8
LinearSVC,0.82
LinearSVC,0.81
LinearSVC,0.76
LinearSVC,0.85
LinearSVC,0.88
LinearSVC,0.83
LinearSVC,0.81
LinearSVC,0.83
LinearSVC,0.83
LinearSVC,0.8
LinearSVC,0.84
LinearSVC,0.85
LinearSVC,0.84
BernoulliNB,0.55
BernoulliNB,0.59
BernoulliNB,0.57
BernoulliNB,0.58
BernoulliNB,0.61
BernoulliNB,0.64
BernoulliNB,0.65
BernoulliNB,0.6
BernoulliNB,0.65
BernoulliNB,0.63
BernoulliNB,0.66
BernoulliNB,0.66
BernoulliNB,0.66
BernoulliNB,0.7
BernoulliNB,0.76
BernoulliNB,0.67
BernoulliNB,0.7
BernoulliNB,0.7
BernoulliNB,0.7
BernoulliNB,0.69
BernoulliNB,0.7
BernoulliNB,0.8
BernoulliNB,0.68
BernoulliNB,0.72
BernoulliNB,0.72
BernoulliNB,0.69
BernoulliNB,0.69
BernoulliNB,0.71
BernoulliNB,0.71
BernoulliNB,0.77
BernoulliNB,0.7
BernoulliNB,0.72
BernoulliNB,0.69
BernoulliNB,0.63
BernoulliNB,0.71
BernoulliNB,0.64
BernoulliNB,0.72
BernoulliNB,0.8
BernoulliNB,0.79
BernoulliNB,0.81
BernoulliNB,0.72
BernoulliNB,0.71
BernoulliNB,0.77
BernoulliNB,0.71
BernoulliNB,0.68
BernoulliNB,0.74
BernoulliNB,0.73
BernoulliNB,0.69
BernoulliNB,0.72
BernoulliNB,0.75
BernoulliNB,0.84
BernoulliNB,0.87
BernoulliNB,0.71
BernoulliNB,0.7
BernoulliNB,0.69
BernoulliNB,0.72
BernoulliNB,0.69
BernoulliNB,0.75
BernoulliNB,0.69
BernoulliNB,0.76
BernoulliNB,0.77
BernoulliNB,0.73
BernoulliNB,0.72
BernoulliNB,0.75
BernoulliNB,0.68
BernoulliNB,0.71
BernoulliNB,0.71
BernoulliNB,0.67
BernoulliNB,0.7
BernoulliNB,0.74
BernoulliNB,0.77
BernoulliNB,0.75
BernoulliNB,0.78
BernoulliNB,0.83
BernoulliNB,0.79
BernoulliNB,0.71
BernoulliNB,0.79
BernoulliNB,0.8
BernoulliNB,0.76
BernoulliNB,0.77
BernoulliNB,0.85
BernoulliNB,0.86
BernoulliNB,0.76
BernoulliNB,0.73
BernoulliNB,0.68
BernoulliNB,0.69
BernoulliNB,0.78
BernoulliNB,0.82
BernoulliNB,0.82
BernoulliNB,0.78
BernoulliNB,0.86
BernoulliNB,0.89
BernoulliNB,0.81
BernoulliNB,0.78
BernoulliNB,0.83
BernoulliNB,0.84
BernoulliNB,0.79
BernoulliNB,0.81
BernoulliNB,0.81
BernoulliNB,0.86
MultinomialNB,0.53
MultinomialNB,0.58
MultinomialNB,0.58
MultinomialNB,0.57
MultinomialNB,0.61
MultinomialNB,0.63
MultinomialNB,0.63
MultinomialNB,0.59
MultinomialNB,0.65
MultinomialNB,0.61
MultinomialNB,0.67
MultinomialNB,0.64
MultinomialNB,0.65
MultinomialNB,0.72
MultinomialNB,0.77
MultinomialNB,0.68
MultinomialNB,0.71
MultinomialNB,0.73
MultinomialNB,0.65
MultinomialNB,0.73
MultinomialNB,0.71
MultinomialNB,0.8
MultinomialNB,0.66
MultinomialNB,0.72
MultinomialNB,0.75
MultinomialNB,0.68
MultinomialNB,0.71
MultinomialNB,0.7
MultinomialNB,0.7
MultinomialNB,0.8
MultinomialNB,0.71
MultinomialNB,0.69
MultinomialNB,0.68
MultinomialNB,0.69
MultinomialNB,0.71
MultinomialNB,0.71
MultinomialNB,0.72
MultinomialNB,0.78
MultinomialNB,0.82
MultinomialNB,0.87
MultinomialNB,0.75
MultinomialNB,0.74
MultinomialNB,0.77
MultinomialNB,0.74
MultinomialNB,0.68
MultinomialNB,0.72
MultinomialNB,0.71
MultinomialNB,0.71
MultinomialNB,0.74
MultinomialNB,0.75
MultinomialNB,0.83
MultinomialNB,0.85
MultinomialNB,0.73
MultinomialNB,0.73
MultinomialNB,0.73
MultinomialNB,0.74
MultinomialNB,0.74
MultinomialNB,0.76
MultinomialNB,0.72
MultinomialNB,0.78
MultinomialNB,0.87
MultinomialNB,0.78
MultinomialNB,0.76
MultinomialNB,0.73
MultinomialNB,0.7
MultinomialNB,0.72
MultinomialNB,0.72
MultinomialNB,0.67
MultinomialNB,0.72
MultinomialNB,0.78
MultinomialNB,0.79
MultinomialNB,0.74
MultinomialNB,0.8
MultinomialNB,0.85
MultinomialNB,0.82
MultinomialNB,0.72
MultinomialNB,0.83
MultinomialNB,0.88
MultinomialNB,0.81
MultinomialNB,0.76
MultinomialNB,0.84
MultinomialNB,0.84
MultinomialNB,0.73
MultinomialNB,0.72
MultinomialNB,0.7
MultinomialNB,0.74
MultinomialNB,0.82
MultinomialNB,0.85
MultinomialNB,0.83
MultinomialNB,0.78
MultinomialNB,0.85
MultinomialNB,0.88
MultinomialNB,0.79
MultinomialNB,0.79
MultinomialNB,0.84
MultinomialNB,0.85
MultinomialNB,0.78
MultinomialNB,0.83
MultinomialNB,0.86
MultinomialNB,0.85