             precision    recall  f1-score   support

     google       0.91      0.91      0.91     18231
        sdl       0.92      0.92      0.92     18717

avg / total       0.91      0.91      0.91     36948